[
    [
        {
            "id": "2339",
            "title": "Dell Vostro 3667 Core i3 4GB 500GB DVD RW DOS Desktop",
            "image": "https://306750-938372-1-raikfcquaxqncofqfm.stackpathdns.com/pub/media/catalog/product/cache/small_image/248x290/beff4985b56e3afdbeabfc89641a4582/d/e/dell_vostro_3667.jpg",
            "link": "https://www.shopkees.com/dell-vostro-3667-core-i3-4gb-500gb-dvd-rw-dos.html",
            "cost_price": 1428,
            "sell_price": 1134,
            "merchant_name": "Shopkees",
            "merchant_url": "https://www.shopkees.com/",
            "source_url": "https://www.shopkees.com/computers-in-dubai/desktop-in-dubai.html",
            "merchant_id": ""
        },
        {
            "id": "2889",
            "title": "Dell Vostro 3670 Core I3 4GB 1TB DVD RW DOS Desktop",
            "image": "https://306750-938372-1-raikfcquaxqncofqfm.stackpathdns.com/pub/media/catalog/product/cache/small_image/248x290/beff4985b56e3afdbeabfc89641a4582/d/e/dell-vostro.jpg",
            "link": "https://www.shopkees.com/dell-vostro-3670-core-i3-4gb-1tb-dvd-rw-dos-desktop.html",
            "cost_price": 1207.5,
            "sell_price": 1150.8,
            "merchant_name": "Shopkees",
            "merchant_url": "https://www.shopkees.com/",
            "source_url": "https://www.shopkees.com/computers-in-dubai/desktop-in-dubai.html",
            "merchant_id": ""
        },
        {
            "id": "3376",
            "title": "HP Desktop Pro G2  Intel Core i3 8100, 4GB, 1TB, DOS, 5QL08EA",
            "image": "https://306750-938372-1-raikfcquaxqncofqfm.stackpathdns.com/pub/media/catalog/product/cache/small_image/248x290/beff4985b56e3afdbeabfc89641a4582/h/p/hp_desktop_pro_g2_asaa_sdas.jpg",
            "link": "https://www.shopkees.com/hp-desktop-pro-g2-intel-core-i3-8100-4gb-1tb-dos.html",
            "cost_price": null,
            "sell_price": 1225,
            "merchant_name": "Shopkees",
            "merchant_url": "https://www.shopkees.com/",
            "source_url": "https://www.shopkees.com/computers-in-dubai/desktop-in-dubai.html",
            "merchant_id": ""
        },
        {
            "id": "2697",
            "title": "Dell Optiplex 3060 SFF i3 8th Gen Desktop PC  4gb 1tb dos Keyboard & mouse Desktop PC",
            "image": "https://306750-938372-1-raikfcquaxqncofqfm.stackpathdns.com/pub/media/catalog/product/cache/small_image/248x290/beff4985b56e3afdbeabfc89641a4582/d/e/dell_optiplex_3060mt.jpg",
            "link": "https://www.shopkees.com/dell-optiplex-3060-i3-8th-gen-desktop-pc-4gb-1tb-dos-keyboard-mouse.html",
            "cost_price": null,
            "sell_price": 1239,
            "merchant_name": "Shopkees",
            "merchant_url": "https://www.shopkees.com/",
            "source_url": "https://www.shopkees.com/computers-in-dubai/desktop-in-dubai.html",
            "merchant_id": ""
        },
        {
            "id": "2090",
            "title": "HP 290 G2 Intel Core i3 8th Gen, 4GB RAM, 500GB HDD, DOS - 1 Year Warranty Desktop PC",
            "image": "https://306750-938372-1-raikfcquaxqncofqfm.stackpathdns.com/pub/media/catalog/product/cache/small_image/248x290/beff4985b56e3afdbeabfc89641a4582/h/p/hp-290g1-desktop-pc.jpg",
            "link": "https://www.shopkees.com/hp-290-g1-intel-core-i3-7th-gen-4gb-ram-500gb-hdd-dos.html",
            "cost_price": null,
            "sell_price": 1249,
            "merchant_name": "Shopkees",
            "merchant_url": "https://www.shopkees.com/",
            "source_url": "https://www.shopkees.com/computers-in-dubai/desktop-in-dubai.html",
            "merchant_id": ""
        },
        {
            "id": "2622",
            "title": "Dell Vostro 3667,Intel i3, 8GB, 1TB, Desktop PC - 1 year Warranty Desktop PC",
            "image": "https://306750-938372-1-raikfcquaxqncofqfm.stackpathdns.com/pub/media/catalog/product/cache/small_image/248x290/beff4985b56e3afdbeabfc89641a4582/d/e/dell-i3-8gb-desktop.jpg",
            "link": "https://www.shopkees.com/dell-vostro-3667-i3-8gb-1tb-desktop-pc-1-year-warranty.html",
            "cost_price": 1575,
            "sell_price": 1299.9,
            "merchant_name": "Shopkees",
            "merchant_url": "https://www.shopkees.com/",
            "source_url": "https://www.shopkees.com/computers-in-dubai/desktop-in-dubai.html",
            "merchant_id": ""
        },
        {
            "id": "2371",
            "title": "Intel NUC7i5BNH Mini PC NUC Kit | NUC7i5BNH",
            "image": "https://306750-938372-1-raikfcquaxqncofqfm.stackpathdns.com/pub/media/catalog/product/cache/small_image/248x290/beff4985b56e3afdbeabfc89641a4582/1/_/1_1_10.jpg",
            "link": "https://www.shopkees.com/intel-nuc7i5bnh-mini-pc-nuc-kit-nuc7i5bnh.html",
            "cost_price": 1785,
            "sell_price": 1412.25,
            "merchant_name": "Shopkees",
            "merchant_url": "https://www.shopkees.com/",
            "source_url": "https://www.shopkees.com/computers-in-dubai/desktop-in-dubai.html",
            "merchant_id": ""
        },
        {
            "id": "2091",
            "title": "HP 290 G2 Intel Core i3 8th Gen, 4GB RAM, 500GB HDD, DOS With 18.5 LED - 1 year Warranty Desktop PC",
            "image": "https://306750-938372-1-raikfcquaxqncofqfm.stackpathdns.com/pub/media/catalog/product/cache/small_image/248x290/beff4985b56e3afdbeabfc89641a4582/h/p/hp-290-g1-led.jpg",
            "link": "https://www.shopkees.com/hp-290-g1-intel-core-i3-6th-gen-4gb-ram-500gb-hdd-dos-with-18-5-led.html",
            "cost_price": 1732.5,
            "sell_price": 1499,
            "merchant_name": "Shopkees",
            "merchant_url": "https://www.shopkees.com/",
            "source_url": "https://www.shopkees.com/computers-in-dubai/desktop-in-dubai.html",
            "merchant_id": ""
        },
        {
            "id": "2598",
            "title": "HP 290 G2 Microtower PC i5 8th Gen, 4GB, 1TB, DOS - 1yr Warranty Desktop PC",
            "image": "https://306750-938372-1-raikfcquaxqncofqfm.stackpathdns.com/pub/media/catalog/product/cache/small_image/248x290/beff4985b56e3afdbeabfc89641a4582/h/p/hp-290-g2-i5.jpg",
            "link": "https://www.shopkees.com/hp-290-g2-microtower-pc-i5-8th-gen-4gb-1tb-dos-1yr-warranty.html",
            "cost_price": 1785,
            "sell_price": 1529,
            "merchant_name": "Shopkees",
            "merchant_url": "https://www.shopkees.com/",
            "source_url": "https://www.shopkees.com/computers-in-dubai/desktop-in-dubai.html",
            "merchant_id": ""
        },
        {
            "id": "2691",
            "title": "Dell OptiPlex 3060 MT i5 8th Gen Desktop PC 4GB, 1TB, DOS Desktop PC",
            "image": "https://306750-938372-1-raikfcquaxqncofqfm.stackpathdns.com/pub/media/catalog/product/cache/small_image/248x290/beff4985b56e3afdbeabfc89641a4582/d/e/dell-3060-i5-dt.jpg",
            "link": "https://www.shopkees.com/dell-optiplex-3060-mt-i5-8th-gen-desktop-pc-4gb-1tb-dos.html",
            "cost_price": 1890,
            "sell_price": 1540,
            "merchant_name": "Shopkees",
            "merchant_url": "https://www.shopkees.com/",
            "source_url": "https://www.shopkees.com/computers-in-dubai/desktop-in-dubai.html",
            "merchant_id": ""
        },
        {
            "id": "2269",
            "title": "HP 290 G2 Intel Core i5 8th Gen, 4GB RAM, 1TB HDD, DOS - 1 year Warranty",
            "image": "https://306750-938372-1-raikfcquaxqncofqfm.stackpathdns.com/pub/media/catalog/product/cache/small_image/248x290/beff4985b56e3afdbeabfc89641a4582/c/0/c05511725.png",
            "link": "https://www.shopkees.com/hp-290-g1-intel-core-i5-7th-gen-4gb-ram-1tb-hdd-dos-1-year-warranty.html",
            "cost_price": 1680,
            "sell_price": 1577.1,
            "merchant_name": "Shopkees",
            "merchant_url": "https://www.shopkees.com/",
            "source_url": "https://www.shopkees.com/computers-in-dubai/desktop-in-dubai.html",
            "merchant_id": ""
        },
        {
            "id": "2682",
            "title": "Lenovo V520Intel® Core™ i5 4GB DDR4 1TB RPM Desktop PC",
            "image": "https://306750-938372-1-raikfcquaxqncofqfm.stackpathdns.com/pub/media/catalog/product/cache/small_image/248x290/beff4985b56e3afdbeabfc89641a4582/t/h/thinkcenter_v520_desktop_with_core_i5_.jpg",
            "link": "https://www.shopkees.com/1-lenovo-v520intelr-coretm-i5-4gb-ddr41tbrpm-with-fastest-shipping.html",
            "cost_price": null,
            "sell_price": 1596,
            "merchant_name": "Shopkees",
            "merchant_url": "https://www.shopkees.com/",
            "source_url": "https://www.shopkees.com/computers-in-dubai/desktop-in-dubai.html",
            "merchant_id": ""
        },
        {
            "id": "2782",
            "title": "Lenovo E73 SFF, i5-4460S, 4GB, 500GB, DOS Desktop PC",
            "image": "https://306750-938372-1-raikfcquaxqncofqfm.stackpathdns.com/pub/media/catalog/product/cache/small_image/248x290/beff4985b56e3afdbeabfc89641a4582/l/e/lenovo_sys_e73_sff_.jpg",
            "link": "https://www.shopkees.com/lenovo-e73-sff-i5-4460s-4gb-500gb-dos.html",
            "cost_price": 1890,
            "sell_price": 1649,
            "merchant_name": "Shopkees",
            "merchant_url": "https://www.shopkees.com/",
            "source_url": "https://www.shopkees.com/computers-in-dubai/desktop-in-dubai.html",
            "merchant_id": ""
        },
        {
            "id": "587",
            "title": "HP 400 G5 MT Intel Core i5 8th Gen, 4GB RAM, 1TB HDD, DOS, 1 Yr Warranty Desktop PC",
            "image": "https://306750-938372-1-raikfcquaxqncofqfm.stackpathdns.com/pub/media/catalog/product/cache/small_image/248x290/beff4985b56e3afdbeabfc89641a4582/h/p/hp_p0d98ut_aba_prodesk_400_g3_microtower_1217947_1.jpg",
            "link": "https://www.shopkees.com/hp-400-g3-mt-intel-core-i5-6th-generation-4gb-ram-500gb-hdd-dos-2-yr.html",
            "cost_price": 1825.95,
            "sell_price": 1653.75,
            "merchant_name": "Shopkees",
            "merchant_url": "https://www.shopkees.com/",
            "source_url": "https://www.shopkees.com/computers-in-dubai/desktop-in-dubai.html",
            "merchant_id": ""
        },
        {
            "id": "2026",
            "title": "HP 290 G2 MT, Intel Core i5, 7th Gen, 4GB RAM, 1TB HDD, DOS, 1 Yr -  1QN92EA+ 18.5\" LED Monitor",
            "image": "https://306750-938372-1-raikfcquaxqncofqfm.stackpathdns.com/pub/media/catalog/product/cache/small_image/248x290/beff4985b56e3afdbeabfc89641a4582/2/8/280g2-15.jpg",
            "link": "https://www.shopkees.com/hp-290-g2-mt-intel-core-i5-6th-gen-4gb-ram-500gb-hdd-dos-1-yr-18-5-led.html",
            "cost_price": 2100,
            "sell_price": 1796.55,
            "merchant_name": "Shopkees",
            "merchant_url": "https://www.shopkees.com/",
            "source_url": "https://www.shopkees.com/computers-in-dubai/desktop-in-dubai.html",
            "merchant_id": ""
        },
        {
            "id": "1346",
            "title": "HP 400 G5 MT Intel Core i5 8th Gen, 4GB RAM, 1TB HDD, Windows 10pro Desktop PC",
            "image": "https://306750-938372-1-raikfcquaxqncofqfm.stackpathdns.com/pub/media/catalog/product/cache/small_image/248x290/beff4985b56e3afdbeabfc89641a4582/h/p/hp_prodesk_400_g5.jpg",
            "link": "https://www.shopkees.com/hp-400-g3-mt-intel-core-i5-6th-gen-4gb-ram-500gb-hdd-windows-7-10-2-yr.html",
            "cost_price": 2256.45,
            "sell_price": 1942.5,
            "merchant_name": "Shopkees",
            "merchant_url": "https://www.shopkees.com/",
            "source_url": "https://www.shopkees.com/computers-in-dubai/desktop-in-dubai.html",
            "merchant_id": ""
        },
        {
            "id": "2391",
            "title": "HP 290 G2 Intel Core i3 8th Gen, 8GB RAM, 1TB HDD, Win 10 Pro - 1 Year Warranty",
            "image": "https://306750-938372-1-raikfcquaxqncofqfm.stackpathdns.com/pub/media/catalog/product/cache/small_image/248x290/beff4985b56e3afdbeabfc89641a4582/2/9/290g1.png",
            "link": "https://www.shopkees.com/hp-290-g1-intel-core-i3-7th-gen-8gb-ram-1tb-hdd-win-10-pro-1-year-warranty.html",
            "cost_price": 2362.5,
            "sell_price": 1945,
            "merchant_name": "Shopkees",
            "merchant_url": "https://www.shopkees.com/",
            "source_url": "https://www.shopkees.com/computers-in-dubai/desktop-in-dubai.html",
            "merchant_id": ""
        },
        {
            "id": "1463",
            "title": "Lenovo E73 Tower, Intel Core i5, 4GB RAM, 500GB HDD, Windows 10",
            "image": "https://306750-938372-1-raikfcquaxqncofqfm.stackpathdns.com/pub/media/catalog/product/cache/small_image/248x290/beff4985b56e3afdbeabfc89641a4582/e/7/e73-1.jpg",
            "link": "https://www.shopkees.com/lenovo-e73-tower-intel-core-i5-4gb-ram-500gb-hdd-windows-10.html",
            "cost_price": null,
            "sell_price": 1995,
            "merchant_name": "Shopkees",
            "merchant_url": "https://www.shopkees.com/",
            "source_url": "https://www.shopkees.com/computers-in-dubai/desktop-in-dubai.html",
            "merchant_id": ""
        },
        {
            "id": "2661",
            "title": "Lenovo ThinkCenter V520 ,Intel Core i7, 8GB,1TB , DOS Desktop PC",
            "image": "https://306750-938372-1-raikfcquaxqncofqfm.stackpathdns.com/pub/media/catalog/product/cache/small_image/248x290/beff4985b56e3afdbeabfc89641a4582/l/e/lenovo_thinkcenter_v520_tower_desktop.jpg",
            "link": "https://www.shopkees.com/lenovo-thinkcenter-v520-desktop-7th-gen-core-i7-8gb-ram-1-tb-hdd-dvd-rw-dos.html",
            "cost_price": 2520,
            "sell_price": 2163,
            "merchant_name": "Shopkees",
            "merchant_url": "https://www.shopkees.com/",
            "source_url": "https://www.shopkees.com/computers-in-dubai/desktop-in-dubai.html",
            "merchant_id": ""
        },
        {
            "id": "2653",
            "title": "HP ProDesk 400 G5 Microtower PC i7, 8th Gen , 4GB, 1TB, Keyboard & Mouse - 1year Warranty Desktop PC",
            "image": "https://306750-938372-1-raikfcquaxqncofqfm.stackpathdns.com/pub/media/catalog/product/cache/small_image/248x290/beff4985b56e3afdbeabfc89641a4582/h/p/hp400g5i7pc.jpg",
            "link": "https://www.shopkees.com/hp-prodesk-400-g5-microtower-pc.html",
            "cost_price": 2520,
            "sell_price": 2184,
            "merchant_name": "Shopkees",
            "merchant_url": "https://www.shopkees.com/",
            "source_url": "https://www.shopkees.com/computers-in-dubai/desktop-in-dubai.html",
            "merchant_id": ""
        },
        {
            "id": "2586",
            "title": "Dell OptiPlex 7060 MT i7 8th Gen Desktop 4GB , 1TB , DOS With Dell Keyboard & Mouse Desktop PC",
            "image": "https://306750-938372-1-raikfcquaxqncofqfm.stackpathdns.com/pub/media/catalog/product/cache/small_image/248x290/beff4985b56e3afdbeabfc89641a4582/d/e/dell-8thgen-i7-pc.jpg",
            "link": "https://www.shopkees.com/dell-optiplex-7060-mt-i7-8th-gen-desktop-4gb-1tb-dos.html",
            "cost_price": 3150,
            "sell_price": 2195,
            "merchant_name": "Shopkees",
            "merchant_url": "https://www.shopkees.com/",
            "source_url": "https://www.shopkees.com/computers-in-dubai/desktop-in-dubai.html",
            "merchant_id": ""
        },
        {
            "id": "3424",
            "title": "Lenovo ThinkCentre M720t Intel Core i5, 4GB, 1TB HDD, DVD±RW, Win 10 Pro 10SQ002XAX",
            "image": "https://306750-938372-1-raikfcquaxqncofqfm.stackpathdns.com/pub/media/catalog/product/cache/small_image/248x290/beff4985b56e3afdbeabfc89641a4582/l/e/lenovo_m720t.jpg",
            "link": "https://www.shopkees.com/lenovo-thinkcentre-m720t-intel-core-i5-4gb-1tb-hdd-dvd-rw-win-10-pro-10sq002xax.html",
            "cost_price": null,
            "sell_price": 2499,
            "merchant_name": "Shopkees",
            "merchant_url": "https://www.shopkees.com/",
            "source_url": "https://www.shopkees.com/computers-in-dubai/desktop-in-dubai.html",
            "merchant_id": ""
        },
        {
            "id": "2644",
            "title": "HP 400 G5 MT Intel Core i5 8th Gen, 4GB RAM, 1TB HDD, Windows 10pro + 18.5 In LED Desktop PC",
            "image": "https://306750-938372-1-raikfcquaxqncofqfm.stackpathdns.com/pub/media/catalog/product/cache/small_image/248x290/beff4985b56e3afdbeabfc89641a4582/4/0/400-g5-1.jpg",
            "link": "https://www.shopkees.com/hp-400-g5-mt-intel-core-i5-8th-gen-4gb-ram-1tb-hdd-windows-10pro.html",
            "cost_price": null,
            "sell_price": 2499,
            "merchant_name": "Shopkees",
            "merchant_url": "https://www.shopkees.com/",
            "source_url": "https://www.shopkees.com/computers-in-dubai/desktop-in-dubai.html",
            "merchant_id": ""
        },
        {
            "id": "3237",
            "title": "Lenovo ThinkCentre M720q Tiny PC i5-8400T,  4GB DDR4, 500GB, DVD Drive, Win 10 Pro, 3 Year Warranty  Desktop PC",
            "image": "https://306750-938372-1-raikfcquaxqncofqfm.stackpathdns.com/pub/media/catalog/product/cache/small_image/248x290/beff4985b56e3afdbeabfc89641a4582/l/e/lenovo_m720q.jpg",
            "link": "https://www.shopkees.com/lenovo-thinkcentre-m720q-tiny-pc-i5-8400t-4gb-ddr4-500gb-dvd-rw-win-10-pro-3-year-warranty.html",
            "cost_price": null,
            "sell_price": 2650,
            "merchant_name": "Shopkees",
            "merchant_url": "https://www.shopkees.com/",
            "source_url": "https://www.shopkees.com/computers-in-dubai/desktop-in-dubai.html",
            "merchant_id": ""
        },
        {
            "id": "1183",
            "title": "HP 400 G5 MT, Intel Core i7, 8th Gen, 4GB RAM, 1 TB HDD,DOS + 18.5\" Monitor Desktop PC",
            "image": "https://306750-938372-1-raikfcquaxqncofqfm.stackpathdns.com/pub/media/catalog/product/cache/small_image/248x290/beff4985b56e3afdbeabfc89641a4582/4/0/400g4-desktop.jpg",
            "link": "https://www.shopkees.com/hp-400-g3-mt-intel-core-i7-4gb-ram-500gb-hdd-dos.html",
            "cost_price": null,
            "sell_price": 2677.5,
            "merchant_name": "Shopkees",
            "merchant_url": "https://www.shopkees.com/",
            "source_url": "https://www.shopkees.com/computers-in-dubai/desktop-in-dubai.html",
            "merchant_id": ""
        },
        {
            "id": "1347",
            "title": "HP 400 G5 MT, Intel Core i7, 8th Gen, 4GB RAM, 1 TB HDD, Win7/10, 1 Yr Warranty Desktop PC",
            "image": "https://306750-938372-1-raikfcquaxqncofqfm.stackpathdns.com/pub/media/catalog/product/cache/small_image/248x290/beff4985b56e3afdbeabfc89641a4582/b/u/buy_hp_400g3_-1.jpg",
            "link": "https://www.shopkees.com/hp-400-g3-mt-intel-core-i7-6th-gen-4gb-ram-1-tb-hdd-win7-10-2-yr.html",
            "cost_price": 2938.95,
            "sell_price": 2756.25,
            "merchant_name": "Shopkees",
            "merchant_url": "https://www.shopkees.com/",
            "source_url": "https://www.shopkees.com/computers-in-dubai/desktop-in-dubai.html",
            "merchant_id": ""
        },
        {
            "id": "1854",
            "title": "HP ProDesk 400 G5 MT, Intel Core i7 8th Gen ,8GB, 1TB SATA, DVD-RW, 2GB, Win10 Pro, 1 Yr Warranty - Y3A10AV Desktop PC",
            "image": "https://306750-938372-1-raikfcquaxqncofqfm.stackpathdns.com/pub/media/catalog/product/cache/small_image/248x290/beff4985b56e3afdbeabfc89641a4582/y/3/y3a10av.jpg",
            "link": "https://www.shopkees.com/hp-400g4-mt-desktop-1kp51ea.html",
            "cost_price": 3596.25,
            "sell_price": 3148.95,
            "merchant_name": "Shopkees",
            "merchant_url": "https://www.shopkees.com/",
            "source_url": "https://www.shopkees.com/computers-in-dubai/desktop-in-dubai.html",
            "merchant_id": ""
        },
        {
            "id": "3425",
            "title": "Lenovo ThinkCentre M720t Intel Core i7, 4GB, 1TB HDD, DVD±RW, Win 10 Pro 10SQ0044AX",
            "image": "https://306750-938372-1-raikfcquaxqncofqfm.stackpathdns.com/pub/media/catalog/product/cache/small_image/248x290/beff4985b56e3afdbeabfc89641a4582/l/e/lenovo_m720t_1.jpg",
            "link": "https://www.shopkees.com/lenovo-thinkcentre-m720t-intel-core-i5-4gb-1tb-hdd-dvd-rw-win-10-pro-10sq002xax-1.html",
            "cost_price": null,
            "sell_price": 3250,
            "merchant_name": "Shopkees",
            "merchant_url": "https://www.shopkees.com/",
            "source_url": "https://www.shopkees.com/computers-in-dubai/desktop-in-dubai.html",
            "merchant_id": ""
        },
        {
            "id": "2094",
            "title": "HP Z2 Mini Work Station G3 Intel Xeon E3 1245v5,16 GB, 512GB, 2GB VGA - 1CC46EA - 3year Warranty",
            "image": "https://306750-938372-1-raikfcquaxqncofqfm.stackpathdns.com/pub/media/catalog/product/cache/small_image/248x290/beff4985b56e3afdbeabfc89641a4582/h/p/hp-z2-mini-g3-workstation_3nhy-j7.jpg",
            "link": "https://www.shopkees.com/hp-z2-mini-g3-intel-xeon-e3-1245v5-16-gb-512gb-2gb-vga-1cc46ea.html",
            "cost_price": null,
            "sell_price": 6351.45,
            "merchant_name": "Shopkees",
            "merchant_url": "https://www.shopkees.com/",
            "source_url": "https://www.shopkees.com/computers-in-dubai/desktop-in-dubai.html",
            "merchant_id": ""
        },
        {
            "id": "2773",
            "title": "DELL ALIENWARE AURORA R8 GAMING PC i7, 16GB, 1TB + 256GB, 8GB, Win10 Desktop PC",
            "image": "https://306750-938372-1-raikfcquaxqncofqfm.stackpathdns.com/pub/media/catalog/product/cache/small_image/248x290/beff4985b56e3afdbeabfc89641a4582/d/e/dell_alienware_r8_gaming_pca_1.jpg",
            "link": "https://www.shopkees.com/dell-alienware-aurora-r8-gaming-pc-i7-16gb-1tb-256gb-8gb-win10.html",
            "cost_price": 11550,
            "sell_price": 9975,
            "merchant_name": "Shopkees",
            "merchant_url": "https://www.shopkees.com/",
            "source_url": "https://www.shopkees.com/computers-in-dubai/desktop-in-dubai.html",
            "merchant_id": ""
        },
        {
            "title": "Dell Alienware Aurora R8 Gaming PC i9, 16GB, 256GB+2TB, 11GB NVidia, Win 10 Home, Keyboard and mouse Desktop PC",
            "image": "https://306750-938372-1-raikfcquaxqncofqfm.stackpathdns.com/pub/media/catalog/product/cache/small_image/248x290/beff4985b56e3afdbeabfc89641a4582/d/e/dell_alienware_r8_gaming_pca.jpg",
            "link": "https://www.shopkees.com/dell-alienware-aurora-r8-gaming-pc-i9-16gb-256gb-2tb-11gb-nvidia-win-10-home-keyboard-and-mouse.html",
            "cost_price": 16800,
            "sell_price": 15025.5,
            "merchant_name": "Shopkees",
            "merchant_url": "https://www.shopkees.com/",
            "source_url": "https://www.shopkees.com/computers-in-dubai/desktop-in-dubai.html",
            "merchant_id": ""
        }
    ],
    [
        {
            "id": "3376",
            "title": "HP Desktop Pro G2  Intel Core i3 8100, 4GB, 1TB, DOS, 5QL08EA",
            "image": "https://306750-938372-1-raikfcquaxqncofqfm.stackpathdns.com/pub/media/catalog/product/cache/small_image/248x290/beff4985b56e3afdbeabfc89641a4582/h/p/hp_desktop_pro_g2_asaa_sdas.jpg",
            "link": "https://www.shopkees.com/hp-desktop-pro-g2-intel-core-i3-8100-4gb-1tb-dos.html",
            "cost_price": null,
            "sell_price": 1225,
            "merchant_name": "Shopkees",
            "merchant_url": "https://www.shopkees.com/",
            "source_url": "https://www.shopkees.com/computers-in-dubai/desktop-in-dubai.html?cat=205",
            "merchant_id": ""
        },
        {
            "id": "2090",
            "title": "HP 290 G2 Intel Core i3 8th Gen, 4GB RAM, 500GB HDD, DOS - 1 Year Warranty Desktop PC",
            "image": "https://306750-938372-1-raikfcquaxqncofqfm.stackpathdns.com/pub/media/catalog/product/cache/small_image/248x290/beff4985b56e3afdbeabfc89641a4582/h/p/hp-290g1-desktop-pc.jpg",
            "link": "https://www.shopkees.com/hp-290-g1-intel-core-i3-7th-gen-4gb-ram-500gb-hdd-dos.html",
            "cost_price": null,
            "sell_price": 1249,
            "merchant_name": "Shopkees",
            "merchant_url": "https://www.shopkees.com/",
            "source_url": "https://www.shopkees.com/computers-in-dubai/desktop-in-dubai.html?cat=205",
            "merchant_id": ""
        },
        {
            "id": "2091",
            "title": "HP 290 G2 Intel Core i3 8th Gen, 4GB RAM, 500GB HDD, DOS With 18.5 LED - 1 year Warranty Desktop PC",
            "image": "https://306750-938372-1-raikfcquaxqncofqfm.stackpathdns.com/pub/media/catalog/product/cache/small_image/248x290/beff4985b56e3afdbeabfc89641a4582/h/p/hp-290-g1-led.jpg",
            "link": "https://www.shopkees.com/hp-290-g1-intel-core-i3-6th-gen-4gb-ram-500gb-hdd-dos-with-18-5-led.html",
            "cost_price": 1732.5,
            "sell_price": 1499,
            "merchant_name": "Shopkees",
            "merchant_url": "https://www.shopkees.com/",
            "source_url": "https://www.shopkees.com/computers-in-dubai/desktop-in-dubai.html?cat=205",
            "merchant_id": ""
        },
        {
            "id": "2598",
            "title": "HP 290 G2 Microtower PC i5 8th Gen, 4GB, 1TB, DOS - 1yr Warranty Desktop PC",
            "image": "https://306750-938372-1-raikfcquaxqncofqfm.stackpathdns.com/pub/media/catalog/product/cache/small_image/248x290/beff4985b56e3afdbeabfc89641a4582/h/p/hp-290-g2-i5.jpg",
            "link": "https://www.shopkees.com/hp-290-g2-microtower-pc-i5-8th-gen-4gb-1tb-dos-1yr-warranty.html",
            "cost_price": 1785,
            "sell_price": 1529,
            "merchant_name": "Shopkees",
            "merchant_url": "https://www.shopkees.com/",
            "source_url": "https://www.shopkees.com/computers-in-dubai/desktop-in-dubai.html?cat=205",
            "merchant_id": ""
        },
        {
            "id": "587",
            "title": "HP 400 G5 MT Intel Core i5 8th Gen, 4GB RAM, 1TB HDD, DOS, 1 Yr Warranty Desktop PC",
            "image": "https://306750-938372-1-raikfcquaxqncofqfm.stackpathdns.com/pub/media/catalog/product/cache/small_image/248x290/beff4985b56e3afdbeabfc89641a4582/h/p/hp_p0d98ut_aba_prodesk_400_g3_microtower_1217947_1.jpg",
            "link": "https://www.shopkees.com/hp-400-g3-mt-intel-core-i5-6th-generation-4gb-ram-500gb-hdd-dos-2-yr.html",
            "cost_price": 1825.95,
            "sell_price": 1653.75,
            "merchant_name": "Shopkees",
            "merchant_url": "https://www.shopkees.com/",
            "source_url": "https://www.shopkees.com/computers-in-dubai/desktop-in-dubai.html?cat=205",
            "merchant_id": ""
        },
        {
            "id": "2026",
            "title": "HP 290 G2 MT, Intel Core i5, 7th Gen, 4GB RAM, 1TB HDD, DOS, 1 Yr -  1QN92EA+ 18.5\" LED Monitor",
            "image": "https://306750-938372-1-raikfcquaxqncofqfm.stackpathdns.com/pub/media/catalog/product/cache/small_image/248x290/beff4985b56e3afdbeabfc89641a4582/2/8/280g2-15.jpg",
            "link": "https://www.shopkees.com/hp-290-g2-mt-intel-core-i5-6th-gen-4gb-ram-500gb-hdd-dos-1-yr-18-5-led.html",
            "cost_price": 2100,
            "sell_price": 1796.55,
            "merchant_name": "Shopkees",
            "merchant_url": "https://www.shopkees.com/",
            "source_url": "https://www.shopkees.com/computers-in-dubai/desktop-in-dubai.html?cat=205",
            "merchant_id": ""
        },
        {
            "id": "1346",
            "title": "HP 400 G5 MT Intel Core i5 8th Gen, 4GB RAM, 1TB HDD, Windows 10pro Desktop PC",
            "image": "https://306750-938372-1-raikfcquaxqncofqfm.stackpathdns.com/pub/media/catalog/product/cache/small_image/248x290/beff4985b56e3afdbeabfc89641a4582/h/p/hp_prodesk_400_g5.jpg",
            "link": "https://www.shopkees.com/hp-400-g3-mt-intel-core-i5-6th-gen-4gb-ram-500gb-hdd-windows-7-10-2-yr.html",
            "cost_price": 2256.45,
            "sell_price": 1942.5,
            "merchant_name": "Shopkees",
            "merchant_url": "https://www.shopkees.com/",
            "source_url": "https://www.shopkees.com/computers-in-dubai/desktop-in-dubai.html?cat=205",
            "merchant_id": ""
        },
        {
            "id": "2653",
            "title": "HP ProDesk 400 G5 Microtower PC i7, 8th Gen , 4GB, 1TB, Keyboard & Mouse - 1year Warranty Desktop PC",
            "image": "https://306750-938372-1-raikfcquaxqncofqfm.stackpathdns.com/pub/media/catalog/product/cache/small_image/248x290/beff4985b56e3afdbeabfc89641a4582/h/p/hp400g5i7pc.jpg",
            "link": "https://www.shopkees.com/hp-prodesk-400-g5-microtower-pc.html",
            "cost_price": 2520,
            "sell_price": 2184,
            "merchant_name": "Shopkees",
            "merchant_url": "https://www.shopkees.com/",
            "source_url": "https://www.shopkees.com/computers-in-dubai/desktop-in-dubai.html?cat=205",
            "merchant_id": ""
        },
        {
            "id": "1183",
            "title": "HP 400 G5 MT, Intel Core i7, 8th Gen, 4GB RAM, 1 TB HDD,DOS + 18.5\" Monitor Desktop PC",
            "image": "https://306750-938372-1-raikfcquaxqncofqfm.stackpathdns.com/pub/media/catalog/product/cache/small_image/248x290/beff4985b56e3afdbeabfc89641a4582/4/0/400g4-desktop.jpg",
            "link": "https://www.shopkees.com/hp-400-g3-mt-intel-core-i7-4gb-ram-500gb-hdd-dos.html",
            "cost_price": null,
            "sell_price": 2677.5,
            "merchant_name": "Shopkees",
            "merchant_url": "https://www.shopkees.com/",
            "source_url": "https://www.shopkees.com/computers-in-dubai/desktop-in-dubai.html?cat=205",
            "merchant_id": ""
        },
        {
            "id": "1347",
            "title": "HP 400 G5 MT, Intel Core i7, 8th Gen, 4GB RAM, 1 TB HDD, Win7/10, 1 Yr Warranty Desktop PC",
            "image": "https://306750-938372-1-raikfcquaxqncofqfm.stackpathdns.com/pub/media/catalog/product/cache/small_image/248x290/beff4985b56e3afdbeabfc89641a4582/b/u/buy_hp_400g3_-1.jpg",
            "link": "https://www.shopkees.com/hp-400-g3-mt-intel-core-i7-6th-gen-4gb-ram-1-tb-hdd-win7-10-2-yr.html",
            "cost_price": 2938.95,
            "sell_price": 2756.25,
            "merchant_name": "Shopkees",
            "merchant_url": "https://www.shopkees.com/",
            "source_url": "https://www.shopkees.com/computers-in-dubai/desktop-in-dubai.html?cat=205",
            "merchant_id": ""
        },
        {
            "id": "1854",
            "title": "HP ProDesk 400 G5 MT, Intel Core i7 8th Gen ,8GB, 1TB SATA, DVD-RW, 2GB, Win10 Pro, 1 Yr Warranty - Y3A10AV Desktop PC",
            "image": "https://306750-938372-1-raikfcquaxqncofqfm.stackpathdns.com/pub/media/catalog/product/cache/small_image/248x290/beff4985b56e3afdbeabfc89641a4582/y/3/y3a10av.jpg",
            "link": "https://www.shopkees.com/hp-400g4-mt-desktop-1kp51ea.html",
            "cost_price": 3596.25,
            "sell_price": 3148.95,
            "merchant_name": "Shopkees",
            "merchant_url": "https://www.shopkees.com/",
            "source_url": "https://www.shopkees.com/computers-in-dubai/desktop-in-dubai.html?cat=205",
            "merchant_id": ""
        },
        {
            "id": "2094",
            "title": "HP Z2 Mini Work Station G3 Intel Xeon E3 1245v5,16 GB, 512GB, 2GB VGA - 1CC46EA - 3year Warranty",
            "image": "https://306750-938372-1-raikfcquaxqncofqfm.stackpathdns.com/pub/media/catalog/product/cache/small_image/248x290/beff4985b56e3afdbeabfc89641a4582/h/p/hp-z2-mini-g3-workstation_3nhy-j7.jpg",
            "link": "https://www.shopkees.com/hp-z2-mini-g3-intel-xeon-e3-1245v5-16-gb-512gb-2gb-vga-1cc46ea.html",
            "cost_price": null,
            "sell_price": 6351.45,
            "merchant_name": "Shopkees",
            "merchant_url": "https://www.shopkees.com/",
            "source_url": "https://www.shopkees.com/computers-in-dubai/desktop-in-dubai.html?cat=205",
            "merchant_id": ""
        }
    ],
    [
        {
            "id": "2339",
            "title": "Dell Vostro 3667 Core i3 4GB 500GB DVD RW DOS Desktop",
            "image": "https://306750-938372-1-raikfcquaxqncofqfm.stackpathdns.com/pub/media/catalog/product/cache/small_image/248x290/beff4985b56e3afdbeabfc89641a4582/d/e/dell_vostro_3667.jpg",
            "link": "https://www.shopkees.com/dell-vostro-3667-core-i3-4gb-500gb-dvd-rw-dos.html",
            "cost_price": 1428,
            "sell_price": 1134,
            "merchant_name": "Shopkees",
            "merchant_url": "https://www.shopkees.com/",
            "source_url": "https://www.shopkees.com/computers-in-dubai/desktop-in-dubai.html?cat=207",
            "merchant_id": ""
        },
        {
            "id": "2889",
            "title": "Dell Vostro 3670 Core I3 4GB 1TB DVD RW DOS Desktop",
            "image": "https://306750-938372-1-raikfcquaxqncofqfm.stackpathdns.com/pub/media/catalog/product/cache/small_image/248x290/beff4985b56e3afdbeabfc89641a4582/d/e/dell-vostro.jpg",
            "link": "https://www.shopkees.com/dell-vostro-3670-core-i3-4gb-1tb-dvd-rw-dos-desktop.html",
            "cost_price": 1207.5,
            "sell_price": 1150.8,
            "merchant_name": "Shopkees",
            "merchant_url": "https://www.shopkees.com/",
            "source_url": "https://www.shopkees.com/computers-in-dubai/desktop-in-dubai.html?cat=207",
            "merchant_id": ""
        },
        {
            "id": "2697",
            "title": "Dell Optiplex 3060 SFF i3 8th Gen Desktop PC  4gb 1tb dos Keyboard & mouse Desktop PC",
            "image": "https://306750-938372-1-raikfcquaxqncofqfm.stackpathdns.com/pub/media/catalog/product/cache/small_image/248x290/beff4985b56e3afdbeabfc89641a4582/d/e/dell_optiplex_3060mt.jpg",
            "link": "https://www.shopkees.com/dell-optiplex-3060-i3-8th-gen-desktop-pc-4gb-1tb-dos-keyboard-mouse.html",
            "cost_price": null,
            "sell_price": 1239,
            "merchant_name": "Shopkees",
            "merchant_url": "https://www.shopkees.com/",
            "source_url": "https://www.shopkees.com/computers-in-dubai/desktop-in-dubai.html?cat=207",
            "merchant_id": ""
        },
        {
            "id": "2622",
            "title": "Dell Vostro 3667,Intel i3, 8GB, 1TB, Desktop PC - 1 year Warranty Desktop PC",
            "image": "https://306750-938372-1-raikfcquaxqncofqfm.stackpathdns.com/pub/media/catalog/product/cache/small_image/248x290/beff4985b56e3afdbeabfc89641a4582/d/e/dell-i3-8gb-desktop.jpg",
            "link": "https://www.shopkees.com/dell-vostro-3667-i3-8gb-1tb-desktop-pc-1-year-warranty.html",
            "cost_price": 1575,
            "sell_price": 1299.9,
            "merchant_name": "Shopkees",
            "merchant_url": "https://www.shopkees.com/",
            "source_url": "https://www.shopkees.com/computers-in-dubai/desktop-in-dubai.html?cat=207",
            "merchant_id": ""
        },
        {
            "id": "2691",
            "title": "Dell OptiPlex 3060 MT i5 8th Gen Desktop PC 4GB, 1TB, DOS Desktop PC",
            "image": "https://306750-938372-1-raikfcquaxqncofqfm.stackpathdns.com/pub/media/catalog/product/cache/small_image/248x290/beff4985b56e3afdbeabfc89641a4582/d/e/dell-3060-i5-dt.jpg",
            "link": "https://www.shopkees.com/dell-optiplex-3060-mt-i5-8th-gen-desktop-pc-4gb-1tb-dos.html",
            "cost_price": 1890,
            "sell_price": 1540,
            "merchant_name": "Shopkees",
            "merchant_url": "https://www.shopkees.com/",
            "source_url": "https://www.shopkees.com/computers-in-dubai/desktop-in-dubai.html?cat=207",
            "merchant_id": ""
        },
        {
            "id": "2586",
            "title": "Dell OptiPlex 7060 MT i7 8th Gen Desktop 4GB , 1TB , DOS With Dell Keyboard & Mouse Desktop PC",
            "image": "https://306750-938372-1-raikfcquaxqncofqfm.stackpathdns.com/pub/media/catalog/product/cache/small_image/248x290/beff4985b56e3afdbeabfc89641a4582/d/e/dell-8thgen-i7-pc.jpg",
            "link": "https://www.shopkees.com/dell-optiplex-7060-mt-i7-8th-gen-desktop-4gb-1tb-dos.html",
            "cost_price": 3150,
            "sell_price": 2195,
            "merchant_name": "Shopkees",
            "merchant_url": "https://www.shopkees.com/",
            "source_url": "https://www.shopkees.com/computers-in-dubai/desktop-in-dubai.html?cat=207",
            "merchant_id": ""
        },
        {
            "id": "2773",
            "title": "DELL ALIENWARE AURORA R8 GAMING PC i7, 16GB, 1TB + 256GB, 8GB, Win10 Desktop PC",
            "image": "https://306750-938372-1-raikfcquaxqncofqfm.stackpathdns.com/pub/media/catalog/product/cache/small_image/248x290/beff4985b56e3afdbeabfc89641a4582/d/e/dell_alienware_r8_gaming_pca_1.jpg",
            "link": "https://www.shopkees.com/dell-alienware-aurora-r8-gaming-pc-i7-16gb-1tb-256gb-8gb-win10.html",
            "cost_price": 11550,
            "sell_price": 9975,
            "merchant_name": "Shopkees",
            "merchant_url": "https://www.shopkees.com/",
            "source_url": "https://www.shopkees.com/computers-in-dubai/desktop-in-dubai.html?cat=207",
            "merchant_id": ""
        },
        {
            "title": "Dell Alienware Aurora R8 Gaming PC i9, 16GB, 256GB+2TB, 11GB NVidia, Win 10 Home, Keyboard and mouse Desktop PC",
            "image": "https://306750-938372-1-raikfcquaxqncofqfm.stackpathdns.com/pub/media/catalog/product/cache/small_image/248x290/beff4985b56e3afdbeabfc89641a4582/d/e/dell_alienware_r8_gaming_pca.jpg",
            "link": "https://www.shopkees.com/dell-alienware-aurora-r8-gaming-pc-i9-16gb-256gb-2tb-11gb-nvidia-win-10-home-keyboard-and-mouse.html",
            "cost_price": 16800,
            "sell_price": 15025.5,
            "merchant_name": "Shopkees",
            "merchant_url": "https://www.shopkees.com/",
            "source_url": "https://www.shopkees.com/computers-in-dubai/desktop-in-dubai.html?cat=207",
            "merchant_id": ""
        }
    ],
    [
        {
            "id": "2782",
            "title": "Lenovo E73 SFF, i5-4460S, 4GB, 500GB, DOS Desktop PC",
            "image": "https://306750-938372-1-raikfcquaxqncofqfm.stackpathdns.com/pub/media/catalog/product/cache/small_image/248x290/beff4985b56e3afdbeabfc89641a4582/l/e/lenovo_sys_e73_sff_.jpg",
            "link": "https://www.shopkees.com/lenovo-e73-sff-i5-4460s-4gb-500gb-dos.html",
            "cost_price": 1890,
            "sell_price": 1649,
            "merchant_name": "Shopkees",
            "merchant_url": "https://www.shopkees.com/",
            "source_url": "https://www.shopkees.com/computers-in-dubai/desktop-in-dubai.html?cat=206",
            "merchant_id": ""
        },
        {
            "id": "1463",
            "title": "Lenovo E73 Tower, Intel Core i5, 4GB RAM, 500GB HDD, Windows 10",
            "image": "https://306750-938372-1-raikfcquaxqncofqfm.stackpathdns.com/pub/media/catalog/product/cache/small_image/248x290/beff4985b56e3afdbeabfc89641a4582/e/7/e73-1.jpg",
            "link": "https://www.shopkees.com/lenovo-e73-tower-intel-core-i5-4gb-ram-500gb-hdd-windows-10.html",
            "cost_price": null,
            "sell_price": 1995,
            "merchant_name": "Shopkees",
            "merchant_url": "https://www.shopkees.com/",
            "source_url": "https://www.shopkees.com/computers-in-dubai/desktop-in-dubai.html?cat=206",
            "merchant_id": ""
        },
        {
            "id": "2661",
            "title": "Lenovo ThinkCenter V520 ,Intel Core i7, 8GB,1TB , DOS Desktop PC",
            "image": "https://306750-938372-1-raikfcquaxqncofqfm.stackpathdns.com/pub/media/catalog/product/cache/small_image/248x290/beff4985b56e3afdbeabfc89641a4582/l/e/lenovo_thinkcenter_v520_tower_desktop.jpg",
            "link": "https://www.shopkees.com/lenovo-thinkcenter-v520-desktop-7th-gen-core-i7-8gb-ram-1-tb-hdd-dvd-rw-dos.html",
            "cost_price": 2520,
            "sell_price": 2163,
            "merchant_name": "Shopkees",
            "merchant_url": "https://www.shopkees.com/",
            "source_url": "https://www.shopkees.com/computers-in-dubai/desktop-in-dubai.html?cat=206",
            "merchant_id": ""
        },
        {
            "id": "3424",
            "title": "Lenovo ThinkCentre M720t Intel Core i5, 4GB, 1TB HDD, DVD±RW, Win 10 Pro 10SQ002XAX",
            "image": "https://306750-938372-1-raikfcquaxqncofqfm.stackpathdns.com/pub/media/catalog/product/cache/small_image/248x290/beff4985b56e3afdbeabfc89641a4582/l/e/lenovo_m720t.jpg",
            "link": "https://www.shopkees.com/lenovo-thinkcentre-m720t-intel-core-i5-4gb-1tb-hdd-dvd-rw-win-10-pro-10sq002xax.html",
            "cost_price": null,
            "sell_price": 2499,
            "merchant_name": "Shopkees",
            "merchant_url": "https://www.shopkees.com/",
            "source_url": "https://www.shopkees.com/computers-in-dubai/desktop-in-dubai.html?cat=206",
            "merchant_id": ""
        },
        {
            "id": "3237",
            "title": "Lenovo ThinkCentre M720q Tiny PC i5-8400T,  4GB DDR4, 500GB, DVD Drive, Win 10 Pro, 3 Year Warranty  Desktop PC",
            "image": "https://306750-938372-1-raikfcquaxqncofqfm.stackpathdns.com/pub/media/catalog/product/cache/small_image/248x290/beff4985b56e3afdbeabfc89641a4582/l/e/lenovo_m720q.jpg",
            "link": "https://www.shopkees.com/lenovo-thinkcentre-m720q-tiny-pc-i5-8400t-4gb-ddr4-500gb-dvd-rw-win-10-pro-3-year-warranty.html",
            "cost_price": null,
            "sell_price": 2650,
            "merchant_name": "Shopkees",
            "merchant_url": "https://www.shopkees.com/",
            "source_url": "https://www.shopkees.com/computers-in-dubai/desktop-in-dubai.html?cat=206",
            "merchant_id": ""
        },
        {
            "id": "3425",
            "title": "Lenovo ThinkCentre M720t Intel Core i7, 4GB, 1TB HDD, DVD±RW, Win 10 Pro 10SQ0044AX",
            "image": "https://306750-938372-1-raikfcquaxqncofqfm.stackpathdns.com/pub/media/catalog/product/cache/small_image/248x290/beff4985b56e3afdbeabfc89641a4582/l/e/lenovo_m720t_1.jpg",
            "link": "https://www.shopkees.com/lenovo-thinkcentre-m720t-intel-core-i5-4gb-1tb-hdd-dvd-rw-win-10-pro-10sq002xax-1.html",
            "cost_price": null,
            "sell_price": 3250,
            "merchant_name": "Shopkees",
            "merchant_url": "https://www.shopkees.com/",
            "source_url": "https://www.shopkees.com/computers-in-dubai/desktop-in-dubai.html?cat=206",
            "merchant_id": ""
        }
    ],
    [
        {
            "id": "2371",
            "title": "Intel NUC7i5BNH Mini PC NUC Kit | NUC7i5BNH",
            "image": "https://306750-938372-1-raikfcquaxqncofqfm.stackpathdns.com/pub/media/catalog/product/cache/small_image/248x290/beff4985b56e3afdbeabfc89641a4582/1/_/1_1_10.jpg",
            "link": "https://www.shopkees.com/intel-nuc7i5bnh-mini-pc-nuc-kit-nuc7i5bnh.html",
            "cost_price": 1785,
            "sell_price": 1412.25,
            "merchant_name": "Shopkees",
            "merchant_url": "https://www.shopkees.com/",
            "source_url": "https://www.shopkees.com/computers-in-dubai/desktop-in-dubai.html?cat=241",
            "merchant_id": ""
        }
    ],
    [
        {
            "id": "2773",
            "title": "DELL ALIENWARE AURORA R8 GAMING PC i7, 16GB, 1TB + 256GB, 8GB, Win10 Desktop PC",
            "image": "https://306750-938372-1-raikfcquaxqncofqfm.stackpathdns.com/pub/media/catalog/product/cache/small_image/248x290/beff4985b56e3afdbeabfc89641a4582/d/e/dell_alienware_r8_gaming_pca_1.jpg",
            "link": "https://www.shopkees.com/dell-alienware-aurora-r8-gaming-pc-i7-16gb-1tb-256gb-8gb-win10.html",
            "cost_price": 11550,
            "sell_price": 9975,
            "merchant_name": "Shopkees",
            "merchant_url": "https://www.shopkees.com/",
            "source_url": "https://www.shopkees.com/computers-in-dubai/desktop-in-dubai.html?cat=295",
            "merchant_id": ""
        },
        {
            "title": "Dell Alienware Aurora R8 Gaming PC i9, 16GB, 256GB+2TB, 11GB NVidia, Win 10 Home, Keyboard and mouse Desktop PC",
            "image": "https://306750-938372-1-raikfcquaxqncofqfm.stackpathdns.com/pub/media/catalog/product/cache/small_image/248x290/beff4985b56e3afdbeabfc89641a4582/d/e/dell_alienware_r8_gaming_pca.jpg",
            "link": "https://www.shopkees.com/dell-alienware-aurora-r8-gaming-pc-i9-16gb-256gb-2tb-11gb-nvidia-win-10-home-keyboard-and-mouse.html",
            "cost_price": 16800,
            "sell_price": 15025.5,
            "merchant_name": "Shopkees",
            "merchant_url": "https://www.shopkees.com/",
            "source_url": "https://www.shopkees.com/computers-in-dubai/desktop-in-dubai.html?cat=295",
            "merchant_id": ""
        }
    ],
    [
        {
            "id": "3376",
            "title": "HP Desktop Pro G2  Intel Core i3 8100, 4GB, 1TB, DOS, 5QL08EA",
            "image": "https://306750-938372-1-raikfcquaxqncofqfm.stackpathdns.com/pub/media/catalog/product/cache/small_image/248x290/beff4985b56e3afdbeabfc89641a4582/h/p/hp_desktop_pro_g2_asaa_sdas.jpg",
            "link": "https://www.shopkees.com/hp-desktop-pro-g2-intel-core-i3-8100-4gb-1tb-dos.html",
            "cost_price": null,
            "sell_price": 1225,
            "merchant_name": "Shopkees",
            "merchant_url": "https://www.shopkees.com/",
            "source_url": "https://www.shopkees.com/computers-in-dubai/desktop-in-dubai.html?cat=205",
            "merchant_id": ""
        },
        {
            "id": "2090",
            "title": "HP 290 G2 Intel Core i3 8th Gen, 4GB RAM, 500GB HDD, DOS - 1 Year Warranty Desktop PC",
            "image": "https://306750-938372-1-raikfcquaxqncofqfm.stackpathdns.com/pub/media/catalog/product/cache/small_image/248x290/beff4985b56e3afdbeabfc89641a4582/h/p/hp-290g1-desktop-pc.jpg",
            "link": "https://www.shopkees.com/hp-290-g1-intel-core-i3-7th-gen-4gb-ram-500gb-hdd-dos.html",
            "cost_price": null,
            "sell_price": 1249,
            "merchant_name": "Shopkees",
            "merchant_url": "https://www.shopkees.com/",
            "source_url": "https://www.shopkees.com/computers-in-dubai/desktop-in-dubai.html?cat=205",
            "merchant_id": ""
        },
        {
            "id": "2091",
            "title": "HP 290 G2 Intel Core i3 8th Gen, 4GB RAM, 500GB HDD, DOS With 18.5 LED - 1 year Warranty Desktop PC",
            "image": "https://306750-938372-1-raikfcquaxqncofqfm.stackpathdns.com/pub/media/catalog/product/cache/small_image/248x290/beff4985b56e3afdbeabfc89641a4582/h/p/hp-290-g1-led.jpg",
            "link": "https://www.shopkees.com/hp-290-g1-intel-core-i3-6th-gen-4gb-ram-500gb-hdd-dos-with-18-5-led.html",
            "cost_price": 1732.5,
            "sell_price": 1499,
            "merchant_name": "Shopkees",
            "merchant_url": "https://www.shopkees.com/",
            "source_url": "https://www.shopkees.com/computers-in-dubai/desktop-in-dubai.html?cat=205",
            "merchant_id": ""
        },
        {
            "id": "2598",
            "title": "HP 290 G2 Microtower PC i5 8th Gen, 4GB, 1TB, DOS - 1yr Warranty Desktop PC",
            "image": "https://306750-938372-1-raikfcquaxqncofqfm.stackpathdns.com/pub/media/catalog/product/cache/small_image/248x290/beff4985b56e3afdbeabfc89641a4582/h/p/hp-290-g2-i5.jpg",
            "link": "https://www.shopkees.com/hp-290-g2-microtower-pc-i5-8th-gen-4gb-1tb-dos-1yr-warranty.html",
            "cost_price": 1785,
            "sell_price": 1529,
            "merchant_name": "Shopkees",
            "merchant_url": "https://www.shopkees.com/",
            "source_url": "https://www.shopkees.com/computers-in-dubai/desktop-in-dubai.html?cat=205",
            "merchant_id": ""
        },
        {
            "id": "587",
            "title": "HP 400 G5 MT Intel Core i5 8th Gen, 4GB RAM, 1TB HDD, DOS, 1 Yr Warranty Desktop PC",
            "image": "https://306750-938372-1-raikfcquaxqncofqfm.stackpathdns.com/pub/media/catalog/product/cache/small_image/248x290/beff4985b56e3afdbeabfc89641a4582/h/p/hp_p0d98ut_aba_prodesk_400_g3_microtower_1217947_1.jpg",
            "link": "https://www.shopkees.com/hp-400-g3-mt-intel-core-i5-6th-generation-4gb-ram-500gb-hdd-dos-2-yr.html",
            "cost_price": 1825.95,
            "sell_price": 1653.75,
            "merchant_name": "Shopkees",
            "merchant_url": "https://www.shopkees.com/",
            "source_url": "https://www.shopkees.com/computers-in-dubai/desktop-in-dubai.html?cat=205",
            "merchant_id": ""
        },
        {
            "id": "2026",
            "title": "HP 290 G2 MT, Intel Core i5, 7th Gen, 4GB RAM, 1TB HDD, DOS, 1 Yr -  1QN92EA+ 18.5\" LED Monitor",
            "image": "https://306750-938372-1-raikfcquaxqncofqfm.stackpathdns.com/pub/media/catalog/product/cache/small_image/248x290/beff4985b56e3afdbeabfc89641a4582/2/8/280g2-15.jpg",
            "link": "https://www.shopkees.com/hp-290-g2-mt-intel-core-i5-6th-gen-4gb-ram-500gb-hdd-dos-1-yr-18-5-led.html",
            "cost_price": 2100,
            "sell_price": 1796.55,
            "merchant_name": "Shopkees",
            "merchant_url": "https://www.shopkees.com/",
            "source_url": "https://www.shopkees.com/computers-in-dubai/desktop-in-dubai.html?cat=205",
            "merchant_id": ""
        },
        {
            "id": "1346",
            "title": "HP 400 G5 MT Intel Core i5 8th Gen, 4GB RAM, 1TB HDD, Windows 10pro Desktop PC",
            "image": "https://306750-938372-1-raikfcquaxqncofqfm.stackpathdns.com/pub/media/catalog/product/cache/small_image/248x290/beff4985b56e3afdbeabfc89641a4582/h/p/hp_prodesk_400_g5.jpg",
            "link": "https://www.shopkees.com/hp-400-g3-mt-intel-core-i5-6th-gen-4gb-ram-500gb-hdd-windows-7-10-2-yr.html",
            "cost_price": 2256.45,
            "sell_price": 1942.5,
            "merchant_name": "Shopkees",
            "merchant_url": "https://www.shopkees.com/",
            "source_url": "https://www.shopkees.com/computers-in-dubai/desktop-in-dubai.html?cat=205",
            "merchant_id": ""
        },
        {
            "id": "2653",
            "title": "HP ProDesk 400 G5 Microtower PC i7, 8th Gen , 4GB, 1TB, Keyboard & Mouse - 1year Warranty Desktop PC",
            "image": "https://306750-938372-1-raikfcquaxqncofqfm.stackpathdns.com/pub/media/catalog/product/cache/small_image/248x290/beff4985b56e3afdbeabfc89641a4582/h/p/hp400g5i7pc.jpg",
            "link": "https://www.shopkees.com/hp-prodesk-400-g5-microtower-pc.html",
            "cost_price": 2520,
            "sell_price": 2184,
            "merchant_name": "Shopkees",
            "merchant_url": "https://www.shopkees.com/",
            "source_url": "https://www.shopkees.com/computers-in-dubai/desktop-in-dubai.html?cat=205",
            "merchant_id": ""
        },
        {
            "id": "1183",
            "title": "HP 400 G5 MT, Intel Core i7, 8th Gen, 4GB RAM, 1 TB HDD,DOS + 18.5\" Monitor Desktop PC",
            "image": "https://306750-938372-1-raikfcquaxqncofqfm.stackpathdns.com/pub/media/catalog/product/cache/small_image/248x290/beff4985b56e3afdbeabfc89641a4582/4/0/400g4-desktop.jpg",
            "link": "https://www.shopkees.com/hp-400-g3-mt-intel-core-i7-4gb-ram-500gb-hdd-dos.html",
            "cost_price": null,
            "sell_price": 2677.5,
            "merchant_name": "Shopkees",
            "merchant_url": "https://www.shopkees.com/",
            "source_url": "https://www.shopkees.com/computers-in-dubai/desktop-in-dubai.html?cat=205",
            "merchant_id": ""
        },
        {
            "id": "1347",
            "title": "HP 400 G5 MT, Intel Core i7, 8th Gen, 4GB RAM, 1 TB HDD, Win7/10, 1 Yr Warranty Desktop PC",
            "image": "https://306750-938372-1-raikfcquaxqncofqfm.stackpathdns.com/pub/media/catalog/product/cache/small_image/248x290/beff4985b56e3afdbeabfc89641a4582/b/u/buy_hp_400g3_-1.jpg",
            "link": "https://www.shopkees.com/hp-400-g3-mt-intel-core-i7-6th-gen-4gb-ram-1-tb-hdd-win7-10-2-yr.html",
            "cost_price": 2938.95,
            "sell_price": 2756.25,
            "merchant_name": "Shopkees",
            "merchant_url": "https://www.shopkees.com/",
            "source_url": "https://www.shopkees.com/computers-in-dubai/desktop-in-dubai.html?cat=205",
            "merchant_id": ""
        },
        {
            "id": "1854",
            "title": "HP ProDesk 400 G5 MT, Intel Core i7 8th Gen ,8GB, 1TB SATA, DVD-RW, 2GB, Win10 Pro, 1 Yr Warranty - Y3A10AV Desktop PC",
            "image": "https://306750-938372-1-raikfcquaxqncofqfm.stackpathdns.com/pub/media/catalog/product/cache/small_image/248x290/beff4985b56e3afdbeabfc89641a4582/y/3/y3a10av.jpg",
            "link": "https://www.shopkees.com/hp-400g4-mt-desktop-1kp51ea.html",
            "cost_price": 3596.25,
            "sell_price": 3148.95,
            "merchant_name": "Shopkees",
            "merchant_url": "https://www.shopkees.com/",
            "source_url": "https://www.shopkees.com/computers-in-dubai/desktop-in-dubai.html?cat=205",
            "merchant_id": ""
        },
        {
            "id": "2094",
            "title": "HP Z2 Mini Work Station G3 Intel Xeon E3 1245v5,16 GB, 512GB, 2GB VGA - 1CC46EA - 3year Warranty",
            "image": "https://306750-938372-1-raikfcquaxqncofqfm.stackpathdns.com/pub/media/catalog/product/cache/small_image/248x290/beff4985b56e3afdbeabfc89641a4582/h/p/hp-z2-mini-g3-workstation_3nhy-j7.jpg",
            "link": "https://www.shopkees.com/hp-z2-mini-g3-intel-xeon-e3-1245v5-16-gb-512gb-2gb-vga-1cc46ea.html",
            "cost_price": null,
            "sell_price": 6351.45,
            "merchant_name": "Shopkees",
            "merchant_url": "https://www.shopkees.com/",
            "source_url": "https://www.shopkees.com/computers-in-dubai/desktop-in-dubai.html?cat=205",
            "merchant_id": ""
        }
    ],
    [
        {
            "id": "2339",
            "title": "Dell Vostro 3667 Core i3 4GB 500GB DVD RW DOS Desktop",
            "image": "https://306750-938372-1-raikfcquaxqncofqfm.stackpathdns.com/pub/media/catalog/product/cache/small_image/248x290/beff4985b56e3afdbeabfc89641a4582/d/e/dell_vostro_3667.jpg",
            "link": "https://www.shopkees.com/dell-vostro-3667-core-i3-4gb-500gb-dvd-rw-dos.html",
            "cost_price": 1428,
            "sell_price": 1134,
            "merchant_name": "Shopkees",
            "merchant_url": "https://www.shopkees.com/",
            "source_url": "https://www.shopkees.com/computers-in-dubai/desktop-in-dubai.html?cat=207",
            "merchant_id": ""
        },
        {
            "id": "2889",
            "title": "Dell Vostro 3670 Core I3 4GB 1TB DVD RW DOS Desktop",
            "image": "https://306750-938372-1-raikfcquaxqncofqfm.stackpathdns.com/pub/media/catalog/product/cache/small_image/248x290/beff4985b56e3afdbeabfc89641a4582/d/e/dell-vostro.jpg",
            "link": "https://www.shopkees.com/dell-vostro-3670-core-i3-4gb-1tb-dvd-rw-dos-desktop.html",
            "cost_price": 1207.5,
            "sell_price": 1150.8,
            "merchant_name": "Shopkees",
            "merchant_url": "https://www.shopkees.com/",
            "source_url": "https://www.shopkees.com/computers-in-dubai/desktop-in-dubai.html?cat=207",
            "merchant_id": ""
        },
        {
            "id": "2697",
            "title": "Dell Optiplex 3060 SFF i3 8th Gen Desktop PC  4gb 1tb dos Keyboard & mouse Desktop PC",
            "image": "https://306750-938372-1-raikfcquaxqncofqfm.stackpathdns.com/pub/media/catalog/product/cache/small_image/248x290/beff4985b56e3afdbeabfc89641a4582/d/e/dell_optiplex_3060mt.jpg",
            "link": "https://www.shopkees.com/dell-optiplex-3060-i3-8th-gen-desktop-pc-4gb-1tb-dos-keyboard-mouse.html",
            "cost_price": null,
            "sell_price": 1239,
            "merchant_name": "Shopkees",
            "merchant_url": "https://www.shopkees.com/",
            "source_url": "https://www.shopkees.com/computers-in-dubai/desktop-in-dubai.html?cat=207",
            "merchant_id": ""
        },
        {
            "id": "2622",
            "title": "Dell Vostro 3667,Intel i3, 8GB, 1TB, Desktop PC - 1 year Warranty Desktop PC",
            "image": "https://306750-938372-1-raikfcquaxqncofqfm.stackpathdns.com/pub/media/catalog/product/cache/small_image/248x290/beff4985b56e3afdbeabfc89641a4582/d/e/dell-i3-8gb-desktop.jpg",
            "link": "https://www.shopkees.com/dell-vostro-3667-i3-8gb-1tb-desktop-pc-1-year-warranty.html",
            "cost_price": 1575,
            "sell_price": 1299.9,
            "merchant_name": "Shopkees",
            "merchant_url": "https://www.shopkees.com/",
            "source_url": "https://www.shopkees.com/computers-in-dubai/desktop-in-dubai.html?cat=207",
            "merchant_id": ""
        },
        {
            "id": "2691",
            "title": "Dell OptiPlex 3060 MT i5 8th Gen Desktop PC 4GB, 1TB, DOS Desktop PC",
            "image": "https://306750-938372-1-raikfcquaxqncofqfm.stackpathdns.com/pub/media/catalog/product/cache/small_image/248x290/beff4985b56e3afdbeabfc89641a4582/d/e/dell-3060-i5-dt.jpg",
            "link": "https://www.shopkees.com/dell-optiplex-3060-mt-i5-8th-gen-desktop-pc-4gb-1tb-dos.html",
            "cost_price": 1890,
            "sell_price": 1540,
            "merchant_name": "Shopkees",
            "merchant_url": "https://www.shopkees.com/",
            "source_url": "https://www.shopkees.com/computers-in-dubai/desktop-in-dubai.html?cat=207",
            "merchant_id": ""
        },
        {
            "id": "2586",
            "title": "Dell OptiPlex 7060 MT i7 8th Gen Desktop 4GB , 1TB , DOS With Dell Keyboard & Mouse Desktop PC",
            "image": "https://306750-938372-1-raikfcquaxqncofqfm.stackpathdns.com/pub/media/catalog/product/cache/small_image/248x290/beff4985b56e3afdbeabfc89641a4582/d/e/dell-8thgen-i7-pc.jpg",
            "link": "https://www.shopkees.com/dell-optiplex-7060-mt-i7-8th-gen-desktop-4gb-1tb-dos.html",
            "cost_price": 3150,
            "sell_price": 2195,
            "merchant_name": "Shopkees",
            "merchant_url": "https://www.shopkees.com/",
            "source_url": "https://www.shopkees.com/computers-in-dubai/desktop-in-dubai.html?cat=207",
            "merchant_id": ""
        },
        {
            "id": "2773",
            "title": "DELL ALIENWARE AURORA R8 GAMING PC i7, 16GB, 1TB + 256GB, 8GB, Win10 Desktop PC",
            "image": "https://306750-938372-1-raikfcquaxqncofqfm.stackpathdns.com/pub/media/catalog/product/cache/small_image/248x290/beff4985b56e3afdbeabfc89641a4582/d/e/dell_alienware_r8_gaming_pca_1.jpg",
            "link": "https://www.shopkees.com/dell-alienware-aurora-r8-gaming-pc-i7-16gb-1tb-256gb-8gb-win10.html",
            "cost_price": 11550,
            "sell_price": 9975,
            "merchant_name": "Shopkees",
            "merchant_url": "https://www.shopkees.com/",
            "source_url": "https://www.shopkees.com/computers-in-dubai/desktop-in-dubai.html?cat=207",
            "merchant_id": ""
        },
        {
            "title": "Dell Alienware Aurora R8 Gaming PC i9, 16GB, 256GB+2TB, 11GB NVidia, Win 10 Home, Keyboard and mouse Desktop PC",
            "image": "https://306750-938372-1-raikfcquaxqncofqfm.stackpathdns.com/pub/media/catalog/product/cache/small_image/248x290/beff4985b56e3afdbeabfc89641a4582/d/e/dell_alienware_r8_gaming_pca.jpg",
            "link": "https://www.shopkees.com/dell-alienware-aurora-r8-gaming-pc-i9-16gb-256gb-2tb-11gb-nvidia-win-10-home-keyboard-and-mouse.html",
            "cost_price": 16800,
            "sell_price": 15025.5,
            "merchant_name": "Shopkees",
            "merchant_url": "https://www.shopkees.com/",
            "source_url": "https://www.shopkees.com/computers-in-dubai/desktop-in-dubai.html?cat=207",
            "merchant_id": ""
        }
    ],
    [
        {
            "id": "2782",
            "title": "Lenovo E73 SFF, i5-4460S, 4GB, 500GB, DOS Desktop PC",
            "image": "https://306750-938372-1-raikfcquaxqncofqfm.stackpathdns.com/pub/media/catalog/product/cache/small_image/248x290/beff4985b56e3afdbeabfc89641a4582/l/e/lenovo_sys_e73_sff_.jpg",
            "link": "https://www.shopkees.com/lenovo-e73-sff-i5-4460s-4gb-500gb-dos.html",
            "cost_price": 1890,
            "sell_price": 1649,
            "merchant_name": "Shopkees",
            "merchant_url": "https://www.shopkees.com/",
            "source_url": "https://www.shopkees.com/computers-in-dubai/desktop-in-dubai.html?cat=206",
            "merchant_id": ""
        },
        {
            "id": "1463",
            "title": "Lenovo E73 Tower, Intel Core i5, 4GB RAM, 500GB HDD, Windows 10",
            "image": "https://306750-938372-1-raikfcquaxqncofqfm.stackpathdns.com/pub/media/catalog/product/cache/small_image/248x290/beff4985b56e3afdbeabfc89641a4582/e/7/e73-1.jpg",
            "link": "https://www.shopkees.com/lenovo-e73-tower-intel-core-i5-4gb-ram-500gb-hdd-windows-10.html",
            "cost_price": null,
            "sell_price": 1995,
            "merchant_name": "Shopkees",
            "merchant_url": "https://www.shopkees.com/",
            "source_url": "https://www.shopkees.com/computers-in-dubai/desktop-in-dubai.html?cat=206",
            "merchant_id": ""
        },
        {
            "id": "2661",
            "title": "Lenovo ThinkCenter V520 ,Intel Core i7, 8GB,1TB , DOS Desktop PC",
            "image": "https://306750-938372-1-raikfcquaxqncofqfm.stackpathdns.com/pub/media/catalog/product/cache/small_image/248x290/beff4985b56e3afdbeabfc89641a4582/l/e/lenovo_thinkcenter_v520_tower_desktop.jpg",
            "link": "https://www.shopkees.com/lenovo-thinkcenter-v520-desktop-7th-gen-core-i7-8gb-ram-1-tb-hdd-dvd-rw-dos.html",
            "cost_price": 2520,
            "sell_price": 2163,
            "merchant_name": "Shopkees",
            "merchant_url": "https://www.shopkees.com/",
            "source_url": "https://www.shopkees.com/computers-in-dubai/desktop-in-dubai.html?cat=206",
            "merchant_id": ""
        },
        {
            "id": "3424",
            "title": "Lenovo ThinkCentre M720t Intel Core i5, 4GB, 1TB HDD, DVD±RW, Win 10 Pro 10SQ002XAX",
            "image": "https://306750-938372-1-raikfcquaxqncofqfm.stackpathdns.com/pub/media/catalog/product/cache/small_image/248x290/beff4985b56e3afdbeabfc89641a4582/l/e/lenovo_m720t.jpg",
            "link": "https://www.shopkees.com/lenovo-thinkcentre-m720t-intel-core-i5-4gb-1tb-hdd-dvd-rw-win-10-pro-10sq002xax.html",
            "cost_price": null,
            "sell_price": 2499,
            "merchant_name": "Shopkees",
            "merchant_url": "https://www.shopkees.com/",
            "source_url": "https://www.shopkees.com/computers-in-dubai/desktop-in-dubai.html?cat=206",
            "merchant_id": ""
        },
        {
            "id": "3237",
            "title": "Lenovo ThinkCentre M720q Tiny PC i5-8400T,  4GB DDR4, 500GB, DVD Drive, Win 10 Pro, 3 Year Warranty  Desktop PC",
            "image": "https://306750-938372-1-raikfcquaxqncofqfm.stackpathdns.com/pub/media/catalog/product/cache/small_image/248x290/beff4985b56e3afdbeabfc89641a4582/l/e/lenovo_m720q.jpg",
            "link": "https://www.shopkees.com/lenovo-thinkcentre-m720q-tiny-pc-i5-8400t-4gb-ddr4-500gb-dvd-rw-win-10-pro-3-year-warranty.html",
            "cost_price": null,
            "sell_price": 2650,
            "merchant_name": "Shopkees",
            "merchant_url": "https://www.shopkees.com/",
            "source_url": "https://www.shopkees.com/computers-in-dubai/desktop-in-dubai.html?cat=206",
            "merchant_id": ""
        },
        {
            "id": "3425",
            "title": "Lenovo ThinkCentre M720t Intel Core i7, 4GB, 1TB HDD, DVD±RW, Win 10 Pro 10SQ0044AX",
            "image": "https://306750-938372-1-raikfcquaxqncofqfm.stackpathdns.com/pub/media/catalog/product/cache/small_image/248x290/beff4985b56e3afdbeabfc89641a4582/l/e/lenovo_m720t_1.jpg",
            "link": "https://www.shopkees.com/lenovo-thinkcentre-m720t-intel-core-i5-4gb-1tb-hdd-dvd-rw-win-10-pro-10sq002xax-1.html",
            "cost_price": null,
            "sell_price": 3250,
            "merchant_name": "Shopkees",
            "merchant_url": "https://www.shopkees.com/",
            "source_url": "https://www.shopkees.com/computers-in-dubai/desktop-in-dubai.html?cat=206",
            "merchant_id": ""
        }
    ],
    [
        {
            "id": "2371",
            "title": "Intel NUC7i5BNH Mini PC NUC Kit | NUC7i5BNH",
            "image": "https://306750-938372-1-raikfcquaxqncofqfm.stackpathdns.com/pub/media/catalog/product/cache/small_image/248x290/beff4985b56e3afdbeabfc89641a4582/1/_/1_1_10.jpg",
            "link": "https://www.shopkees.com/intel-nuc7i5bnh-mini-pc-nuc-kit-nuc7i5bnh.html",
            "cost_price": 1785,
            "sell_price": 1412.25,
            "merchant_name": "Shopkees",
            "merchant_url": "https://www.shopkees.com/",
            "source_url": "https://www.shopkees.com/computers-in-dubai/desktop-in-dubai.html?cat=241",
            "merchant_id": ""
        }
    ],
    [
        {
            "id": "2773",
            "title": "DELL ALIENWARE AURORA R8 GAMING PC i7, 16GB, 1TB + 256GB, 8GB, Win10 Desktop PC",
            "image": "https://306750-938372-1-raikfcquaxqncofqfm.stackpathdns.com/pub/media/catalog/product/cache/small_image/248x290/beff4985b56e3afdbeabfc89641a4582/d/e/dell_alienware_r8_gaming_pca_1.jpg",
            "link": "https://www.shopkees.com/dell-alienware-aurora-r8-gaming-pc-i7-16gb-1tb-256gb-8gb-win10.html",
            "cost_price": 11550,
            "sell_price": 9975,
            "merchant_name": "Shopkees",
            "merchant_url": "https://www.shopkees.com/",
            "source_url": "https://www.shopkees.com/computers-in-dubai/desktop-in-dubai.html?cat=295",
            "merchant_id": ""
        },
        {
            "title": "Dell Alienware Aurora R8 Gaming PC i9, 16GB, 256GB+2TB, 11GB NVidia, Win 10 Home, Keyboard and mouse Desktop PC",
            "image": "https://306750-938372-1-raikfcquaxqncofqfm.stackpathdns.com/pub/media/catalog/product/cache/small_image/248x290/beff4985b56e3afdbeabfc89641a4582/d/e/dell_alienware_r8_gaming_pca.jpg",
            "link": "https://www.shopkees.com/dell-alienware-aurora-r8-gaming-pc-i9-16gb-256gb-2tb-11gb-nvidia-win-10-home-keyboard-and-mouse.html",
            "cost_price": 16800,
            "sell_price": 15025.5,
            "merchant_name": "Shopkees",
            "merchant_url": "https://www.shopkees.com/",
            "source_url": "https://www.shopkees.com/computers-in-dubai/desktop-in-dubai.html?cat=295",
            "merchant_id": ""
        }
    ]
]